…
```
## Calculating cluster Unknown
```

```
## Calculating cluster Even more plasma cells
```

```r
#print the best markers
Yespolyp.markers %>% group_by(cluster) %>% top_n(n = 2, wt = avg_logFC)
```

```
## # A tibble: 24 x 7
## # Groups:   cluster [12]
##        p_val avg_logFC pct.1 pct.2 p_val_adj cluster     gene    
##        <dbl>     <dbl> <dbl> <dbl>     <dbl> <fct>       <chr>   
##  1 0.             2.07 0.533 0.102 0.        Basal       MMP10   
##  2 0.             1.78 0.647 0.101 0.        Basal       KRT5    
##  3 0.             3.38 0.755 0.139 0.        Plasma Cell IGKC    
##  4 3.92e-252      3.37 0.314 0.062 1.22e-247 Plasma Cell IGHV1-24
##  5 0.             3.19 0.71  0.157 0.        Apical      BPIFB1  
##  6 9.14e-285      3.38 0.599 0.205 2.84e-280 Apical      BPIFA1  
##  7 0.             3.59 0.92  0.078 0.        Fibroblast  DCN     
##  8 0.             3.11 0.813 0.071 0.        Fibroblast  LUM     
##  9 0.             2.69 0.394 0.036 0.        T Cell      CCL5    
## 10 0.             2.24 0.436 0.029 0.        T Cell      TRBC2   
## # … with 14 more rows
```
…
